{
  "page": 1,
  "per_page": 6,
  "total": 12,
  "total_pages": 2,
  "data": [
    {
      "id": 1,
      "email": "elizabeth@gmail.com",
      "first_name": "Elizabeth",
      "last_name": "Crisóstomo",
      "movil": "5614568536",
      "state": "Edo. México",
      "city": "Tlalnepantla",
      "avatar": "https://i.ibb.co/gdQm0vJ/Eli.jpg"
    },
    {
      "id": 2,
      "email": "jessi@gmail.com",
      "first_name": "Jessi",
      "last_name": "Weaver",
      "movil": "5614568536",
      "state": "Edo. México",
      "city": "Tultitlán",
      "avatar": "https://i.ibb.co/qjxnNxC/jessi.jpg"
    },
    {
      "id": 3,
      "email": "karla@gmail.com",
      "first_name": "Karla",
      "last_name": "Wong",
      "movil": "5614568536",
      "state": "Edo. México",
      "city": "Tultitlán",
      "avatar": "https://i.ibb.co/9VKqyKD/karla.jpg"
    },
    {
      "id": 4,
      "email": "kevin@gmail.com",
      "first_name": "Kevin",
      "last_name": "Holt",
      "movil": "5614568536",
      "state": "Edo. México",
      "city": "Tultitlán",
      "avatar": "https://i.ibb.co/FYkKH68/kevin.jpg"
    },
    {
      "id": 5,
      "email": "rodrigo@gmail.com",
      "first_name": "Rodrigo",
      "last_name": "Morris",
      "movil": "5614568536",
      "state": "Edo. México",
      "city": "Tultitlán",
      "avatar": "https://i.ibb.co/QbmxwsQ/rodrigo.jpg"
    },
    {
      "id": 1,
      "email": "e@gmail.com",
      "password": 1,
      "first_name": "e",
      "last_name": "c",
      "movil": "5614568536",
      "state": "Edo. México",
      "city": "Tlalnepantla",
      "avatar": "https://i.ibb.co/gdQm0vJ/Eli.jpg"
    }
  ],
  "support": {
    "url": "https://reqres.in/#support-heading",
    "text": "To keep ReqRes free, contributions towards server costs are appreciated!"
  }
}